…
## Obtain Spectral Signature

This example shows you how to get the spectral signature of the
accelerometry data:

``` r
library(bis620.2022)
data(ukb_accel)
spec_sig <- spectral_signature(ukb_accel[1:100, ], take_log = TRUE)
spec_sig
#> # A tibble: 50 × 4
#>         X     Y      Z  freq
#>     <dbl> <dbl>  <dbl> <dbl>
#>  1  2.98  3.52   4.64   1.01
#>  2  3.26  1.44   1.43   1.03
#>  3  2.10  1.44   2.26   1.05
#>  4  2.01  1.36   1.58   1.08
#>  5  0.438 1.01   1.01   1.10
#>  6  1.46  0.737 -0.199  1.12
#>  7  0.961 0.962  1.05   1.15
#>  8  1.35  1.06   0.935  1.18
#>  9  1.29  1.06  -1.44   1.20
#> 10 -0.148 0.957  1.04   1.23
#> # … with 40 more rows
```
…
